…
How to find classifiers?
------------------------

You can find classifiers and their IDs at <https://app.monkeylearn.com/main/explore> or you can use the `monkeylearn_classifiers` function, choosing to show all classifiers or only the private ones with `private = TRUE`. The first column of the resulting data.frame is the `classifier_id` to be used in `monkeylearn_classify`.

``` r
monkeylearn_classifiers(private = FALSE)
```

    ## # A tibble: 154 × 19
    ##    classifier_id                                                   name
    ##            <chr>                                                  <chr>
    ## 1    cl_dsKm8Q8m                         App Reviews Sentiment Analysis
    ## 2    cl_VCykxryo                              News classifier (spanish)
    ## 3    cl_SDLTu88J                                     Tech Business News
    ## 4    cl_cq6e5oEq Tweets - Offensive and hate speech detection - English
    ## 5    cl_YygsUUkN                                        Founder Names 2
    ## 6    cl_UXdsVBzj           Smart Restaurant Reviews Sentiments Analysis
    ## 7    cl_bwxdJMHE                                               Spam Ham
    ## 8    cl_xG46wHyZ                                     Good News (German)
    ## 9    cl_2MXugh99                             GMS-Hotel-Reviews-Analysis
    ## 10   cl_mEcCuEcG                       Emotions and sentiment in Tweets
    ## # ... with 144 more rows, and 17 more variables: description <chr>,
    ## #   train_state <chr>, train_job_id <lgl>, language <chr>,
    ## #   ngram_range <chr>, use_stemmer <lgl>, stop_words <chr>,
    ## #   max_features <int>, strip_stopwords <lgl>, is_multilabel <lgl>,
    ## #   is_twitter_data <lgl>, normalize_weights <lgl>, classifier <chr>,
    ## #   industry <chr>, classifier_type <chr>, text_type <chr>,
    ## #   permissions <chr>
…
