Accesses the Monkeylearn API for Text Classifiers and Extractors • monkeylearn
…
How to find classifiers?

You can find classifiers and their IDs at https://app.monkeylearn.com/main/explore or you can use the monkeylearn_classifiers function, choosing to show all classifiers or only the private ones with private = TRUE. The first column of the resulting data.frame is the classifier_id to be used in monkeylearn_classify.

monkeylearn_classifiers(private = FALSE)

## # A tibble: 45 x 19
##    classifier_id name   description      train_state train_job_id language
##    <chr>         <chr>  <chr>            <chr>       <lgl>        <chr>   
##  1 cl_yhQdyvro   Offen~ Identify offens~ TRAINED     NA           en      
##  2 cl_gBhyCMCs   Custo~ Detects if huma~ TRAINED     NA           en      
##  3 cl_N3VzxNLN   Custo~ Differentiates ~ TRAINED     NA           en      
##  4 cl_csyzaevo   Perso~ "Classifies job~ DIRTY       NA           en      
##  5 cl_pX4g5EEF   Custo~ Helps to detect~ TRAINED     NA           en      
##  6 cl_Jx8qzYJh   Senti~ Detect sentimen~ DIRTY       NA           en      
##  7 cl_sGdE8hD9   NPS S~ Classify NPS re~ DIRTY       NA           en      
##  8 cl_T7XMb74S   IAB T~ Classifies text~ TRAINED     NA           en      
##  9 cl_nLW3yR6m   Telco~ Classify custom~ TRAINED     NA           en      
## 10 cl_4LqLD7cN   Telco~ Detect the topi~ TRAINED     NA           en      
## # ... with 35 more rows, and 13 more variables: ngram_range <chr>,
## #   use_stemmer <lgl>, stop_words <chr>, max_features <int>,
## #   strip_stopwords <lgl>, is_multilabel <lgl>, is_twitter_data <lgl>,
## #   normalize_weights <lgl>, classifier <chr>, industry <chr>,
## #   classifier_type <chr>, text_type <chr>, permissions <chr>
…
